CrackSingle...
Cracked: aut0
Elapsed: 0s
CrackSingle: PASS
CrackSpeedy...
Cracked: aut0
Cracked: m1nt
Cracked: xer0
Cracked: Pblc
Cracked: Key3
Cracked: 9enc
Cracked: 6 of 6
Elapsed: 153s
CrackSpeedy: PASS
CrackMultiple...
Cracked: aut0
Cracked: m1nt
Cracked: xer0
Cracked: Pblc
Cracked: Key3
Cracked: 9enc
Cracked: 6 of 6
Elapsed: 143s
CrackMultiple: PASS
CrackStealthy...
Cracked: aut0
Elapsed: 0s
Max CPU: 0.0%
CrackStealthy: PASS
